{
    "version": "0.5",
    "description": "Xtreme Quality IMA-ADPCM Encoder / Decoder.",
    "homepage": "https://github.com/dbry/adpcm-xq",
    "license": "Freeware",
    "url": "https://mirror.ghproxy.com/https://github.com/dbry/adpcm-xq/releases/download/v0.5/adpcm-xq.exe",
    "hash": "d88f4414997addbc2d06dc29a2ff0345dbcd4d226e84fa0a06a98c627ea88879",
    "bin": "adpcm-xq.exe",
    "checkver": "github",
    "autoupdate": {
        "url": "https://mirror.ghproxy.com/https://github.com/dbry/adpcm-xq/releases/download/v$version/adpcm-xq.exe"
    }
}
