{
    "version": "5.2.5.1",
    "description": "一款专注于Ai翻译的工具，可以用来一键自动翻译RPG SLG游戏，Epub TXT小说，Srt Lrc字幕等等",
    "homepage": "https://github.com/NEKOparapa/AiNiee",
    "license": "GPL-3.0-only",
    "architecture": {
        "64bit": {
            "url": "https://mirror.ghproxy.com/https://github.com/NEKOparapa/AiNiee/releases/download/AiNiee5.2.5.1/AiNiee5.2.5.1.zip",
            "hash": "3de643f15b4e2d029736daff69718349782ecd5f26bb7e57de249e7a58a13729"
        }
    },
    "extract_dir": "dist",
    "shortcuts": [
        [
            "AiNiee4.exe",
            "AiNiee"
        ]
    ],
    "pre_install": "if (!(Test-Path \"$persist_dir\\resource\\config.json\")) { Set-Content -Encoding ASCII -Path \"$dir\\resource\\config.json\" -Value \"{}\" }",
    "persist": "resource\\config.json",
    "checkver": {
        "url": "https://mirror.ghproxy.com/https://github.com/NEKOparapa/AiNiee/releases.atom",
        "regex": "Repository/\\d+/AiNiee([\\d.]+)"
    },
    "autoupdate": {
        "architecture": {
            "64bit": {
                "url": "https://mirror.ghproxy.com/https://github.com/NEKOparapa/AiNiee/releases/download/AiNiee$version/AiNiee$version.zip"
            }
        }
    }
}
