{
    "version": "2025.01.06",
    "description": "方舟像素字体 / Ark Pixel Font，开源的泛中日韩像素字体 (10像素等宽模式)",
    "homepage": "https://ark-pixel-font.takwolf.com",
    "license": "OFL-1.1|MIT",
    "url": "https://mirror.ghproxy.com/https://github.com/TakWolf/ark-pixel-font/releases/download/2025.01.06/ark-pixel-font-10px-monospaced-ttf-v2025.01.06.zip",
    "hash": "b8aced6667f5d2ea1f6ae7b2747f8b667bd82695b361650e610a736977addfeb",
    "checkver": {
        "github": "https://github.com/TakWolf/ark-pixel-font"
    },
    "autoupdate": {
        "url": "https://mirror.ghproxy.com/https://github.com/TakWolf/ark-pixel-font/releases/download/$version/ark-pixel-font-10px-monospaced-ttf-v$version.zip"
    },
    "installer": {
        "script": [
            "$currentBuildNumber = [int] (Get-ItemProperty \"HKLM:\\SOFTWARE\\Microsoft\\Windows NT\\CurrentVersion\").CurrentBuildNumber",
            "$windows1809BuildNumber = 17763",
            "$isPerUserFontInstallationSupported = $currentBuildNumber -ge $windows1809BuildNumber",
            "$isFontInstallationForAllUsers = $global -or !$isPerUserFontInstallationSupported",
            "if ($isFontInstallationForAllUsers -and !(is_admin)) {",
            "    error \"Administrator rights are required to install $app.\"",
            "    exit 1",
            "}",
            "$fontInstallDir = if ($isFontInstallationForAllUsers) { \"$env:windir\\Fonts\" } else { \"$env:LOCALAPPDATA\\Microsoft\\Windows\\Fonts\" }",
            "$registryRoot = if ($isFontInstallationForAllUsers) { \"HKLM\" } else { \"HKCU\" }",
            "$registryKey = \"${registryRoot}:\\SOFTWARE\\Microsoft\\Windows NT\\CurrentVersion\\Fonts\"",
            "New-Item $fontInstallDir -ItemType Directory -ErrorAction SilentlyContinue | Out-Null",
            "Get-ChildItem $dir -Filter '*.ttf' | ForEach-Object {",
            "    $value = if ($isFontInstallationForAllUsers) { $_.Name } else { \"$fontInstallDir\\$($_.Name)\" }",
            "    New-ItemProperty -Path $registryKey -Name $_.Name.Replace($_.Extension, ' (TrueType)') -Value $value -Force | Out-Null",
            "    Copy-Item $_.FullName -Destination $fontInstallDir",
            "}"
        ]
    },
    "uninstaller": {
        "script": [
            "$currentBuildNumber = [int] (Get-ItemProperty \"HKLM:\\SOFTWARE\\Microsoft\\Windows NT\\CurrentVersion\").CurrentBuildNumber",
            "$windows1809BuildNumber = 17763",
            "$isPerUserFontInstallationSupported = $currentBuildNumber -ge $windows1809BuildNumber",
            "$isFontInstallationForAllUsers = $global -or !$isPerUserFontInstallationSupported",
            "if ($isFontInstallationForAllUsers -and !(is_admin)) {",
            "    error \"Administrator rights are required to uninstall $app.\"",
            "    exit 1",
            "}",
            "$fontInstallDir = if ($isFontInstallationForAllUsers) { \"$env:windir\\Fonts\" } else { \"$env:LOCALAPPDATA\\Microsoft\\Windows\\Fonts\" }",
            "$registryRoot = if ($isFontInstallationForAllUsers) { \"HKLM\" } else { \"HKCU\" }",
            "$registryKey = \"${registryRoot}:\\SOFTWARE\\Microsoft\\Windows NT\\CurrentVersion\\Fonts\"",
            "Get-ChildItem $dir -Filter '*.ttf' | ForEach-Object {",
            "    Remove-ItemProperty -Path $registryKey -Name $_.Name.Replace($_.Extension, ' (TrueType)') -Force -ErrorAction SilentlyContinue",
            "    Remove-Item \"$fontInstallDir\\$($_.Name)\" -Force -ErrorAction SilentlyContinue",
            "}",
            "Write-Host \"Font family 'Ark Pixel 10px Monospaced' has been uninstalled and will not be present after restarting your computer.\" -Foreground Magenta"
        ]
    }
}
