{
    "version": "2.0.0.0",
    "description": "BluetoothLEBatteryMonitor - Windows BluetoothLE Battery Monitor.",
    "homepage": "https://github.com/MUedsa/BluetoothLEBatteryMonitor",
    "license": "MIT",
    "url": "https://mirror.ghproxy.com/https://github.com/MUedsa/BluetoothLEBatteryMonitor/releases/download/v2.0.0.0/Release_v2.0.0.0.zip",
    "hash": "69fe678715a23106ecb8deeaf49b9bff7adfbc5e2874a39e53025c1374ba7159",
    "shortcuts": [
        [
            "BluetoothLEBatteryMonitor.exe",
            "BluetoothLE Battery Monitor"
        ]
    ],
    "checkver": {
        "url": "https://mirror.ghproxy.com/https://github.com/MUedsa/BluetoothLEBatteryMonitor/releases",
        "regex": "/tree/v([\\d.]+)"
    },
    "autoupdate": {
        "url": "https://mirror.ghproxy.com/https://github.com/MUedsa/BluetoothLEBatteryMonitor/releases/download/v$version/Release_v$version.zip"
    }
}
