{
    "version": "0.1.4",
    "description": "将 clash.meta 格式的配置文件或链接转换为 sing-box 格式",
    "homepage": "https://github.com/xmdhs/clash2singbox",
    "license": "MIT",
    "architecture": {
        "64bit": {
            "url": "https://mirror.ghproxy.com/https://github.com/xmdhs/clash2singbox/releases/download/v0.1.4/clash2singbox-windows-amd64.exe#/clash2singbox.exe",
            "hash": "3a5fa4e52c282517d248a53ed685de6b370a39bd544b05b49f5f5dc07924626f"
        },
        "32bit": {
            "url": "https://mirror.ghproxy.com/https://github.com/xmdhs/clash2singbox/releases/download/v0.1.4/clash2singbox-windows-386.exe#/clash2singbox.exe",
            "hash": "b633e07585bfcebc245834a592b7826d7e98bd726210321f33c59d4dfd16b2f0"
        }
    },
    "bin": "clash2singbox.exe",
    "checkver": "github",
    "autoupdate": {
        "architecture": {
            "64bit": {
                "url": "https://mirror.ghproxy.com/https://github.com/xmdhs/clash2singbox/releases/download/v$version/clash2singbox-windows-amd64.exe#/clash2singbox.exe"
            },
            "32bit": {
                "url": "https://mirror.ghproxy.com/https://github.com/xmdhs/clash2singbox/releases/download/v$version/clash2singbox-windows-386.exe#/clash2singbox.exe"
            }
        }
    }
}
