{
    "version": "0.88.5",
    "description": "A full and flexible interface to interact with Codefresh.",
    "homepage": "https://codefresh-io.github.io/cli/",
    "license": "MIT",
    "architecture": {
        "64bit": {
            "url": "https://mirror.ghproxy.com/https://github.com/codefresh-io/cli/releases/download/v0.88.5/codefresh-v0.88.5-win-x64.zip",
            "hash": "53960dac502497f420a4b5e413a0563f42ef4443c263050f714ff82106b488c8"
        }
    },
    "bin": "codefresh.exe",
    "checkver": {
        "github": "https://github.com/codefresh-io/cli"
    },
    "autoupdate": {
        "architecture": {
            "64bit": {
                "url": "https://mirror.ghproxy.com/https://github.com/codefresh-io/cli/releases/download/v$version/codefresh-v$version-win-x64.zip"
            }
        }
    }
}
