{
    "version": "1.0.4",
    "description": "COSCLI 是腾讯云对象存储（Cloud Object Storage，COS）提供的客户端命令行工具，支持配置多个存储桶和跨桶操作",
    "homepage": "https://github.com/tencentyun/coscli",
    "license": "Apache-2.0",
    "architecture": {
        "64bit": {
            "url": "https://cosbrowser.cloud.tencent.com/software/coscli/coscli-windows-amd64.exe#/coscli.exe",
            "hash": "91ecab74d4204a0a1a2b0f3621de8ac4a17242beaa4bfce7099be3479cfa5679"
        },
        "32bit": {
            "url": "https://cosbrowser.cloud.tencent.com/software/coscli/coscli-windows-386.exe#/coscli.exe",
            "hash": "4a4c7e96ad2f5cad0b5fc0f5f94677beb208f71f7d103cea3374908793ac531e"
        }
    },
    "bin": "coscli.exe",
    "checkver": {
        "url": "https://mirror.ghproxy.com/https://github.com/tencentyun/coscli/releases.atom",
        "regex": "Repository/\\d+/v(.+?)<"
    },
    "autoupdate": {
        "architecture": {
            "64bit": {
                "url": "https://cosbrowser.cloud.tencent.com/software/coscli/coscli-windows-amd64.exe#/coscli.exe"
            },
            "32bit": {
                "url": "https://cosbrowser.cloud.tencent.com/software/coscli/coscli-windows-386.exe#/coscli.exe"
            }
        },
        "hash": {
            "url": "$baseurl/sha256sum.log"
        }
    }
}
