{
    "version": "0.9.8",
    "description": "COW (Climb Over the Wall) can automatically identify blocked sites and use parent proxies to access.",
    "homepage": "https://github.com/cyfdecyf/cow",
    "license": "BSD-2-Clause",
    "architecture": {
        "64bit": {
            "url": "https://mirror.ghproxy.com/https://github.com/cyfdecyf/cow/releases/download/0.9.8/cow-win64-0.9.8.zip",
            "hash": "abe537c512832a46ee824826c8dfe69c208eccdefdc28d9b1fad16dcf3baa1fc"
        },
        "32bit": {
            "url": "https://mirror.ghproxy.com/https://github.com/cyfdecyf/cow/releases/download/0.9.8/cow-win32-0.9.8.zip",
            "hash": "20d4de2c7b20cef4ff6cd1b047f0c283e12a87d70aa7e3c06e669abc77d35c3d"
        }
    },
    "pre_install": [
        "if (!(Test-Path \"$persist_dir\\blocked.txt\")) { Set-Content -Encoding ASCII -Path \"$dir\\blocked.txt\" -Value $null }",
        "if (!(Test-Path \"$persist_dir\\direct.txt\")) { Set-Content -Encoding ASCII -Path \"$dir\\direct.txt\" -Value $null }"
    ],
    "persist": [
        "rc.txt",
        "blocked.txt",
        "direct.txt"
    ],
    "bin": "cow.exe",
    "shortcuts": [
        [
            "cow-taskbar.exe",
            "COW"
        ]
    ],
    "checkver": "github",
    "autoupdate": {
        "architecture": {
            "64bit": {
                "url": "https://mirror.ghproxy.com/https://github.com/cyfdecyf/cow/releases/download/$version/cow-win64-$version.zip"
            },
            "32bit": {
                "url": "https://mirror.ghproxy.com/https://github.com/cyfdecyf/cow/releases/download/$version/cow-win32-$version.zip"
            }
        }
    }
}
