{
    "version": "1.4.4.5",
    "description": "An implementation of the gocryptfs encrypted overlay filesystem in C++ for Windows.",
    "homepage": "https://github.com/bailey27/cppcryptfs",
    "license": "MIT",
    "architecture": {
        "64bit": {
            "url": "https://mirror.ghproxy.com/https://github.com/bailey27/cppcryptfs/releases/download/1.4.4.5/cppcryptfs.exe",
            "hash": "15510c6f87eeafc4d04c1d709173055f8519d2a18cf97a9d017bbfc9aebba7e3"
        },
        "32bit": {
            "url": "https://mirror.ghproxy.com/https://github.com/bailey27/cppcryptfs/releases/download/1.4.4.5/cppcryptfs32.exe#/cppcryptfs.exe",
            "hash": "9456caa33e53c42a68c286ff5a5c6050c98f195375e4e18ea00eba04c308e7c9"
        }
    },
    "shortcuts": [
        [
            "cppcryptfs.exe",
            "cppcryptfs"
        ]
    ],
    "suggest": {
        "cppcryptfsctl": "cppcryptfsctl",
        "dokany": "dokany-np"
    },
    "checkver": "github",
    "autoupdate": {
        "architecture": {
            "64bit": {
                "url": "https://mirror.ghproxy.com/https://github.com/bailey27/cppcryptfs/releases/download/$version/cppcryptfs.exe"
            },
            "32bit": {
                "url": "https://mirror.ghproxy.com/https://github.com/bailey27/cppcryptfs/releases/download/$version/cppcryptfs32.exe#/cppcryptfs.exe"
            }
        }
    }
}
