{
    "version": "1.18.4",
    "description": "A simple custom Rich Presence manager (Playing status) for Discord.",
    "homepage": "https://www.customrp.xyz/",
    "license": "MIT",
    "url": "https://mirror.ghproxy.com/https://github.com/maximmax42/Discord-CustomRP/releases/download/1.18.4/CustomRP.1.18.4.zip",
    "hash": "b6fbe1029b369436920013c6ef808fa7761759561bfa1401c9a58a0f38af9cf4",
    "extract_dir": "CustomRP",
    "shortcuts": [
        [
            "CustomRP.exe",
            "CustomRP"
        ]
    ],
    "checkver": {
        "github": "https://github.com/maximmax42/Discord-CustomRP"
    },
    "autoupdate": {
        "url": "https://mirror.ghproxy.com/https://github.com/maximmax42/Discord-CustomRP/releases/download/$version/CustomRP.$version.zip"
    }
}
