{
    "##": "No longer future updates for Windows",
    "version": "1.1.0",
    "description": "ehco is a network relay tool and a typo.",
    "homepage": "https://github.com/Ehco1996/ehco",
    "license": "GPL-3.0-only",
    "architecture": {
        "64bit": {
            "url": "https://mirror.ghproxy.com/https://github.com/Ehco1996/ehco/releases/download/v1.1.0/ehco_1.1.0_windows_amd64.exe#/ehco.exe",
            "hash": "3268a473b786ecae8611b9bdf7bffd18a091e755178646be126f1489b4de0fa2"
        }
    },
    "bin": "ehco.exe"
}
