{
    "version": "2025.222.2100.0",
    "description": "The MetaTube Plugin for Emby.",
    "homepage": "https://metatube-community.github.io/",
    "license": "MIT",
    "url": "https://mirror.ghproxy.com/https://github.com/metatube-community/jellyfin-plugin-metatube/releases/download/v2025.222.2100.0/Emby.MetaTube@v2025.222.2100.0.zip",
    "hash": "c784da8453cb6e1dee2e1b6e752fb2a0aa4e27a21cb4047f7f079dd4d71dc0f6",
    "installer": {
        "script": [
            "if ($env:CI -eq \"true\") { Return }",
            "if (!(installed 'emby' $global)) { error \"Please install 'lemon/emby' first, then reinstall '$app'.\" ; Exit }",
            "$plugindir = \"$(appdir emby $global)\\current\\programdata\\plugins\"",
            "ensure $plugindir | Out-Null",
            "Copy-Item \"$dir\\MetaTube.dll\" $plugindir"
        ]
    },
    "uninstaller": {
        "script": [
            "if ($env:CI -eq \"true\") { Return }",
            "if (!(installed 'emby' $global)) { Return }",
            "$pluginpath = \"$(appdir emby $global)\\current\\programdata\\plugins\\MetaTube.dll\"",
            "if (Test-Path $pluginpath) { Remove-Item $pluginpath | Out-Null }"
        ]
    },
    "checkver": {
        "url": "https://mirror.ghproxy.com/https://github.com/metatube-community/jellyfin-plugin-metatube/releases.atom",
        "regex": "Repository/\\d+/v([\\d.]+)"
    },
    "autoupdate": {
        "url": "https://mirror.ghproxy.com/https://github.com/metatube-community/jellyfin-plugin-metatube/releases/download/v$version/Emby.MetaTube@v$version.zip"
    }
}
