{
    "version": "4.3.2",
    "description": "An open source, cross-platform 2FA authenticator, with end-to-end encrypted backups.",
    "homepage": "https://ente.io/auth/",
    "license": "AGPL-3.0-only",
    "architecture": {
        "64bit": {
            "url": "https://mirror.ghproxy.com/https://github.com/ente-io/ente/releases/download/auth-v4.3.2/ente-auth-v4.3.2-windows.zip",
            "extract_dir": "ente-auth-v4.3.2-windows",
            "hash": "2056f9382322b33e6d7460bbdece49e1e95e4a21b3569258c94c1a3f8ecfa259"
        }
    },
    "shortcuts": [
        [
            "auth.exe",
            "Ente Auth"
        ]
    ],
    "notes": "Ente Auth is NOT portable.",
    "checkver": {
        "url": "https://mirror.ghproxy.com/https://github.com/ente-io/ente/releases?q=auth",
        "regex": "/ente/tree/auth-v([^/]+?)\""
    },
    "autoupdate": {
        "architecture": {
            "64bit": {
                "url": "https://mirror.ghproxy.com/https://github.com/ente-io/ente/releases/download/auth-v$version/ente-auth-v$version-windows.zip",
                "extract_dir": "ente-auth-v$version-windows"
            }
        }
    }
}
