{
    "version": "1.4.3",
    "description": "A command line tool for porting Excalidraw diagrams to Gliffy and draw.io.",
    "homepage": "https://github.com/sindrel/excalidraw-converter",
    "license": "MIT",
    "architecture": {
        "64bit": {
            "url": "https://mirror.ghproxy.com/https://github.com/sindrel/excalidraw-converter/releases/download/v1.4.3/excalidraw-converter_1.4.3_windows_amd64.zip",
            "hash": "bab6bdc19bdc6060cbc8c26f38c34475d0f77c2a5021844568b8c4981ca2dbfe"
        }
    },
    "bin": "exconv.exe",
    "checkver": "github",
    "autoupdate": {
        "architecture": {
            "64bit": {
                "url": "https://mirror.ghproxy.com/https://github.com/sindrel/excalidraw-converter/releases/download/v$version/excalidraw-converter_$version_windows_amd64.zip"
            }
        },
        "hash": {
            "url": "$baseurl/excalidraw-converter_$version_checksums.txt"
        }
    }
}
