{
    "version": "2.12.0",
    "description": "A CLI application to merge history of Firefox and repair missing favicons with ease.",
    "homepage": "https://github.com/crazy-max/firefox-history-merger",
    "license": "MIT",
    "architecture": {
        "64bit": {
            "url": "https://mirror.ghproxy.com/https://github.com/crazy-max/firefox-history-merger/releases/download/2.12.0/firefox-history-merger-windows-4.0-amd64.exe#/firefox-history-merger.exe",
            "hash": "f546c9b351bea997e53789595f318b0e6d3208a63b4f3a42b41ad1fc6933603c"
        },
        "32bit": {
            "url": "https://mirror.ghproxy.com/https://github.com/crazy-max/firefox-history-merger/releases/download/2.12.0/firefox-history-merger-windows-4.0-386.exe#/firefox-history-merger.exe",
            "hash": "293f058c341ff217a7ce2a06c76161e9ee963454662131bdb8b977a5d7cbfc37"
        }
    },
    "bin": "firefox-history-merger.exe",
    "checkver": "github",
    "autoupdate": {
        "architecture": {
            "64bit": {
                "url": "https://mirror.ghproxy.com/https://github.com/crazy-max/firefox-history-merger/releases/download/$version/firefox-history-merger-windows-4.0-amd64.exe#/firefox-history-merger.exe"
            },
            "32bit": {
                "url": "https://mirror.ghproxy.com/https://github.com/crazy-max/firefox-history-merger/releases/download/$version/firefox-history-merger-windows-4.0-386.exe#/firefox-history-merger.exe"
            }
        }
    }
}
