{
    "version": "0.13.0",
    "description": "Generate hash checksum for directory and verify file integrity.",
    "homepage": "https://github.com/Glavo/gchecksum",
    "license": "Apache-2.0",
    "architecture": {
        "64bit": {
            "url": "https://mirror.ghproxy.com/https://github.com/Glavo/gchecksum/releases/download/0.13.0/gchecksum-0.13.0.exe#/gchecksum.exe",
            "hash": "f7722b180e824e332732b3ed6cb7c2fc0d60bab347251ede6753207b6a5db4f1"
        }
    },
    "bin": "gchecksum.exe",
    "checkver": "github",
    "autoupdate": {
        "architecture": {
            "64bit": {
                "url": "https://mirror.ghproxy.com/https://github.com/Glavo/gchecksum/releases/download/$version/gchecksum-$version.exe#/gchecksum.exe"
            }
        }
    }
}
