{
    "version": "3.1.0",
    "description": "A sigma-based threat hunting and fast forensics timeline generator for Windows event logs.",
    "homepage": "https://github.com/Yamato-Security/hayabusa",
    "license": "AGPL-3.0-only",
    "architecture": {
        "64bit": {
            "url": "https://mirror.ghproxy.com/https://github.com/Yamato-Security/hayabusa/releases/download/v3.1.0/hayabusa-3.1.0-win-x64-live-response.zip",
            "hash": "73cd86b70ebbd4983e2c1c5553276b58034436e18ac64967f996aeeeab60a89b"
        },
        "32bit": {
            "url": "https://mirror.ghproxy.com/https://github.com/Yamato-Security/hayabusa/releases/download/v3.1.0/hayabusa-3.1.0-win-x86-live-response.zip",
            "hash": "19919f727f08bf1eeb0157108d3f57f15e308f8ca678d54c76697fb82710dcac"
        },
        "arm64": {
            "url": "https://mirror.ghproxy.com/https://github.com/Yamato-Security/hayabusa/releases/download/v3.1.0/hayabusa-3.1.0-win-aarch64-live-response.zip",
            "hash": "f6585d849f2a32152352df250de03f1cac712a4c0302601879063946e56b91bb"
        }
    },
    "pre_install": "Get-ChildItem \"$dir\" 'hayabusa-*.exe' | Select-Object -First 1 | Rename-Item -NewName 'hayabusa.exe'",
    "bin": "hayabusa.exe",
    "checkver": "github",
    "autoupdate": {
        "architecture": {
            "64bit": {
                "url": "https://mirror.ghproxy.com/https://github.com/Yamato-Security/hayabusa/releases/download/v$version/hayabusa-$version-win-x64-live-response.zip"
            },
            "32bit": {
                "url": "https://mirror.ghproxy.com/https://github.com/Yamato-Security/hayabusa/releases/download/v$version/hayabusa-$version-win-x86-live-response.zip"
            },
            "arm64": {
                "url": "https://mirror.ghproxy.com/https://github.com/Yamato-Security/hayabusa/releases/download/v$version/hayabusa-$version-win-aarch64-live-response.zip"
            }
        }
    }
}
