{
    "version": "0.4.18",
    "description": "A CLI tool that creates Helm charts from kubernetes yamls.",
    "homepage": "https://github.com/arttor/helmify",
    "license": "MIT",
    "architecture": {
        "64bit": {
            "url": "https://mirror.ghproxy.com/https://github.com/arttor/helmify/releases/download/v0.4.18/helmify_Windows_x86_64.zip",
            "hash": "4bb9635cc042ba6d09b70792be7e105f796985be9a40505802e7323e303711dd"
        },
        "32bit": {
            "url": "https://mirror.ghproxy.com/https://github.com/arttor/helmify/releases/download/v0.4.18/helmify_Windows_i386.zip",
            "hash": "7d4f713b7ae79678d5196f11acc7fe9fff949dba31bca4716c8ce5d6d641dae2"
        }
    },
    "bin": "helmify.exe",
    "checkver": "github",
    "autoupdate": {
        "architecture": {
            "64bit": {
                "url": "https://mirror.ghproxy.com/https://github.com/arttor/helmify/releases/download/v$version/helmify_Windows_x86_64.zip"
            },
            "32bit": {
                "url": "https://mirror.ghproxy.com/https://github.com/arttor/helmify/releases/download/v$version/helmify_Windows_i386.zip"
            }
        },
        "hash": {
            "url": "$baseurl/checksums.txt"
        }
    }
}
