{
    "version": "1.27.0",
    "description": "iCloud Photos Downloader is a command-line tool to download photos from iCloud.",
    "homepage": "https://github.com/icloud-photos-downloader/icloud_photos_downloader",
    "license": "MIT",
    "architecture": {
        "64bit": {
            "url": "https://mirror.ghproxy.com/https://github.com/icloud-photos-downloader/icloud_photos_downloader/releases/download/v1.27.0/icloudpd-1.27.0-windows-amd64.exe#/icloudpd.exe",
            "hash": "590661c32a0116c5d9fed030dca0f391236733b5867e5bc55418cfe0dd460b98"
        }
    },
    "bin": "icloudpd.exe",
    "checkver": "github",
    "autoupdate": {
        "architecture": {
            "64bit": {
                "url": "https://mirror.ghproxy.com/https://github.com/icloud-photos-downloader/icloud_photos_downloader/releases/download/v$version/icloudpd-$version-windows-amd64.exe#/icloudpd.exe"
            }
        }
    }
}
