{
    "version": "0.13.0",
    "description": "A general-purpose command-line utility for building Docker or OCI container images from file system content as well as JAR files.",
    "homepage": "https://github.com/GoogleContainerTools/jib/tree/master/jib-cli",
    "license": "Apache-2.0",
    "url": "https://mirror.ghproxy.com/https://github.com/GoogleContainerTools/jib/releases/download/v0.13.0-cli/jib-jre-0.13.0.zip",
    "hash": "e8f6a4766221e6d3817226b8ee14792c4553e5605e79a48558f0d3bef21e0461",
    "extract_dir": "jib-0.13.0",
    "bin": "bin\\jib.bat",
    "suggest": {
        "JDK": [
            "java/oraclejdk",
            "java/openjdk",
            "java/adoptopenjdk-hotspot",
            "java/zulu"
        ]
    },
    "checkver": {
        "url": "https://raw.githubusercontent.com/GoogleContainerTools/jib/master/jib-cli/CHANGELOG.md",
        "regex": "(?sm)^## ([\\d.]+)$"
    },
    "autoupdate": {
        "url": "https://mirror.ghproxy.com/https://github.com/GoogleContainerTools/jib/releases/download/v$version-cli/jib-jre-$version.zip",
        "extract_dir": "jib-$version",
        "hash": {
            "url": "$url.sha256"
        }
    }
}
