{
    "version": "1.9.2",
    "description": "A command line utility that provides a fast and simple way to retrieve or update values from JSON documents.",
    "homepage": "https://github.com/tidwall/jj",
    "license": "MIT",
    "architecture": {
        "64bit": {
            "url": "https://mirror.ghproxy.com/https://github.com/tidwall/jj/releases/download/v1.9.2/jj-1.9.2-windows-amd64.zip",
            "hash": "0f047f37386c3eded8a1b893cf00c07156a43663caef1f6f17ec069692568ca9",
            "extract_dir": "jj-1.9.2-windows-amd64"
        }
    },
    "bin": "jj.exe",
    "checkver": "github",
    "autoupdate": {
        "architecture": {
            "64bit": {
                "url": "https://mirror.ghproxy.com/https://github.com/tidwall/jj/releases/download/v$version/jj-$version-windows-amd64.zip",
                "extract_dir": "jj-$version-windows-amd64"
            }
        }
    }
}
