{
    "version": "1.5.5",
    "description": "A utility to optimize/compress JPEG files.",
    "homepage": "https://github.com/tjko/jpegoptim",
    "license": "GPL-3.0-only",
    "architecture": {
        "64bit": {
            "url": "https://mirror.ghproxy.com/https://github.com/tjko/jpegoptim/releases/download/v1.5.5/jpegoptim-1.5.5-x64-windows.zip",
            "hash": "ffa037ecc12e002c1c87c334d8ebaed988ec738c3ad606d054272950519b09a8"
        }
    },
    "bin": "jpegoptim.exe",
    "checkver": "github",
    "autoupdate": {
        "architecture": {
            "64bit": {
                "url": "https://mirror.ghproxy.com/https://github.com/tjko/jpegoptim/releases/download/v$version/jpegoptim-$version-x64-windows.zip"
            }
        }
    }
}
