{
    "version": "0.17.4",
    "description": "A kubernetes log viewer.",
    "homepage": "https://github.com/boz/kail",
    "license": "MIT",
    "architecture": {
        "64bit": {
            "url": "https://mirror.ghproxy.com/https://github.com/boz/kail/releases/download/v0.17.4/kail_v0.17.4_windows_amd64.tar.gz",
            "hash": "e8efa97a6adcfe0ecc472f910e72c82d408ab019d44bde89434fcb4dd6782d51"
        },
        "arm64": {
            "url": "https://mirror.ghproxy.com/https://github.com/boz/kail/releases/download/v0.17.4/kail_v0.17.4_windows_arm64.tar.gz",
            "hash": "e3313c1d02ec9192694484cd59ddc59fd8f10d07a89bc551d8dd6e2e6bdaa5ec"
        }
    },
    "bin": "kail.exe",
    "checkver": "github",
    "autoupdate": {
        "architecture": {
            "64bit": {
                "url": "https://mirror.ghproxy.com/https://github.com/boz/kail/releases/download/v$version/kail_v$version_windows_amd64.tar.gz"
            },
            "arm64": {
                "url": "https://mirror.ghproxy.com/https://github.com/boz/kail/releases/download/v$version/kail_v$version_windows_arm64.tar.gz"
            }
        },
        "hash": {
            "url": "$baseurl/checksums.txt"
        }
    }
}
