{
    "version": "0.1.1",
    "description": "Debug your pod by a new container with every troubleshooting tools pre-installed.",
    "homepage": "https://github.com/aylei/kubectl-debug",
    "license": "Apache-2.0",
    "architecture": {
        "64bit": {
            "url": "https://mirror.ghproxy.com/https://github.com/aylei/kubectl-debug/releases/download/v0.1.1/kubectl-debug_0.1.1_windows_amd64.tar.gz",
            "hash": "e57f7fa0b05663b72962402b8986e27f9f5ee3012ed92ce492bcc8e4766a3bde"
        },
        "32bit": {
            "url": "https://mirror.ghproxy.com/https://github.com/aylei/kubectl-debug/releases/download/v0.1.1/kubectl-debug_0.1.1_windows_386.tar.gz",
            "hash": "1dafdfeebc40265ba56240613376e957df17d122f55290f42b9f0f6705de6df4"
        }
    },
    "bin": "kubectl-debug.exe",
    "checkver": "github",
    "autoupdate": {
        "architecture": {
            "64bit": {
                "url": "https://mirror.ghproxy.com/https://github.com/aylei/kubectl-debug/releases/download/v$version/kubectl-debug_$version_windows_amd64.tar.gz"
            },
            "32bit": {
                "url": "https://mirror.ghproxy.com/https://github.com/aylei/kubectl-debug/releases/download/v$version/kubectl-debug_$version_windows_386.tar.gz"
            }
        },
        "hash": {
            "url": "$baseurl/checksums.txt"
        }
    }
}
