{
    "version": "13.1.4",
    "description": "A hybrid command-line/UI development experience for cloud-native development.",
    "homepage": "https://kui.tools/",
    "license": "Apache-2.0",
    "architecture": {
        "64bit": {
            "url": "https://mirror.ghproxy.com/https://github.com/kubernetes-sigs/kui/releases/download/v13.1.4/Kui-win32-x64.zip",
            "hash": "da068216b0dd15b9c8f32c24dc324049a86962200e2edda31daea6dbd9e45bfd",
            "extract_dir": "Kui-win32-x64"
        }
    },
    "bin": [
        [
            "Kui.exe",
            "kubectl-kui",
            "kubectl"
        ]
    ],
    "shortcuts": [
        [
            "Kui.exe",
            "Kui"
        ]
    ],
    "suggest": {
        "kubectl": "kubectl"
    },
    "checkver": {
        "github": "https://github.com/kubernetes-sigs/kui"
    },
    "autoupdate": {
        "architecture": {
            "64bit": {
                "url": "https://mirror.ghproxy.com/https://github.com/kubernetes-sigs/kui/releases/download/v$version/Kui-win32-x64.zip"
            }
        }
    }
}
