{
    "version": "0.37.4",
    "description": "An audio/video live streaming broadcast server written in Go.",
    "homepage": "https://github.com/q191201771/lal",
    "license": "MIT",
    "architecture": {
        "64bit": {
            "url": "https://mirror.ghproxy.com/https://github.com/q191201771/lal/releases/download/v0.37.4/lal_v0.37.4_windows.zip",
            "extract_dir": "lal_v0.37.4_windows",
            "hash": "e67ab31830bd6807fb14b5f76e2181c5cdcd4accca0b2404bdf06dcb115d4b75"
        }
    },
    "bin": "bin\\lalserver.exe",
    "persist": "conf",
    "checkver": "github",
    "autoupdate": {
        "architecture": {
            "64bit": {
                "url": "https://mirror.ghproxy.com/https://github.com/q191201771/lal/releases/download/v$version/lal_v$version_windows.zip",
                "extract_dir": "lal_v$version_windows"
            }
        }
    }
}
