{
    "version": "11.24.0",
    "description": "(libportable patched) A new privacy-preserving Firefox-based browser developedby a community of students in Japan.",
    "homepage": "https://floorp.app/en/",
    "license": "MPL-2.0",
    "architecture": {
        "64bit": {
            "url": "https://mirror.ghproxy.com/https://github.com/Floorp-Projects/Floorp/releases/download/v11.24.0/floorp-win64.installer.exe#/dl.7z",
            "hash": "0340a3c1e5f7531b54e23edfb7a32dcd38309c1f140ef486aaa89950553e4107"
        }
    },
    "depends": "lemon/libportable",
    "pre_install": [
        "if ($env:CI -eq \"true\") { return }",
        "Remove-Item \"$dir\\setup.exe\", \"$dir\\core\\updater.*\" -Force",
        "Copy-Item \"$(appdir libportable $global)\\current\\portable64.dll\" \"$dir\\core\\\"",
        "if (!(installed 'libportable' $global)) { error 'Please install `libportable` first, then reinstall `libportable-floorp`.' ; Exit }",
        "Invoke-ExternalCommand \"$(appdir libportable $global)\\current\\setdll64.exe\" -ArgumentList (\"/d:$dir\\core\\portable64.dll\", \"$dir\\core\\mozglue.dll\") -Activity \"Applying libportable patch...\" | Out-Null",
        "if (!(Test-Path \"$persist_dir\\App\\portable.ini\" )) {",
        "  Copy-Item \"$(appdir libportable $global)\\current\\portable(example).ini\" \"$dir\\core\\portable.ini\"",
        "  ((Get-Content -path \"$dir\\core\\portable.ini\" -Raw) -replace 'Update=1','Update=0') | Set-Content -Path \"$dir\\core\\portable.ini\"",
        "}"
    ],
    "bin": "core\\floorp.exe",
    "shortcuts": [
        [
            "core\\floorp.exe",
            "Floorp"
        ]
    ],
    "persist": [
        "core\\portable.ini",
        "Profiles",
        "Plugins"
    ],
    "checkver": {
        "github": "https://github.com/Floorp-Projects/Floorp"
    },
    "autoupdate": {
        "architecture": {
            "64bit": {
                "url": "https://mirror.ghproxy.com/https://github.com/Floorp-Projects/Floorp/releases/download/v$version/floorp-win64.installer.exe#/dl.7z"
            }
        }
    }
}
