{
    "version": "1.0.11",
    "description": "A command line interface for LibreSpeed speed test backends, written in Go.",
    "homepage": "https://github.com/librespeed/speedtest-cli",
    "license": "GPL-3.0-only",
    "architecture": {
        "64bit": {
            "url": "https://mirror.ghproxy.com/https://github.com/librespeed/speedtest-cli/releases/download/v1.0.11/librespeed-cli_1.0.11_windows_amd64.zip",
            "hash": "86bd49d59ea8c249d029cafcf6c1af266076db335e5e7a35baa940c3d14d21f7"
        },
        "32bit": {
            "url": "https://mirror.ghproxy.com/https://github.com/librespeed/speedtest-cli/releases/download/v1.0.11/librespeed-cli_1.0.11_windows_386.zip",
            "hash": "a8a70b140a95f633d10aa229901738fab0c83fe4ebd23dfd464bf8c1041fde67"
        }
    },
    "bin": "librespeed-cli.exe",
    "checkver": "github",
    "autoupdate": {
        "architecture": {
            "64bit": {
                "url": "https://mirror.ghproxy.com/https://github.com/librespeed/speedtest-cli/releases/download/v$version/librespeed-cli_$version_windows_amd64.zip"
            },
            "32bit": {
                "url": "https://mirror.ghproxy.com/https://github.com/librespeed/speedtest-cli/releases/download/v$version/librespeed-cli_$version_windows_386.zip"
            }
        }
    }
}
