{
    "version": "0.1.2",
    "description": "Losslessly & gaplessly cut m4a (AAC in MP4) files.",
    "homepage": "https://github.com/nu774/m4acut",
    "license": {
        "identifier": "Zlib",
        "url": "https://mirror.ghproxy.com/https://github.com/nu774/m4acut/blob/master/COPYING"
    },
    "url": "https://mirror.ghproxy.com/https://github.com/nu774/m4acut/releases/download/v0.1.2/m4acut_0.1.2.zip",
    "hash": "606b388af05c278355d4fbd8917644f5716f9c4a0e03a57c05b18a9ad172dfe2",
    "extract_dir": "m4acut_0.1.2",
    "bin": "m4acut.exe",
    "checkver": "github",
    "autoupdate": {
        "url": "https://mirror.ghproxy.com/https://github.com/nu774/m4acut/releases/download/v$version/m4acut_$version.zip",
        "extract_dir": "m4acut_$version"
    }
}
