{
    "version": "7.0-beta36",
    "description": "Open source monospace/nerd font with round corner for IDE and command line.",
    "homepage": "https://github.com/subframe7536/Maple-font",
    "license": "OFL-1.1",
    "url": "https://mirror.ghproxy.com/https://github.com/subframe7536/maple-font/releases/download/v7.0-beta36/MapleMono-NF-unhinted.zip",
    "hash": "d4dc9980d35b1af1511f42a953ab14b16f5843d8dbe9a74564fa2d91a4796857",
    "checkver": {
        "url": "https://mirror.ghproxy.com/https://github.com/subframe7536/Maple-font/releases.atom",
        "regex": "Repository/\\d+/v(.+?)<"
    },
    "autoupdate": {
        "url": "https://mirror.ghproxy.com/https://github.com/subframe7536/maple-font/releases/download/v$version/MapleMono-NF-unhinted.zip",
        "hash": {
            "url": "$baseurl/MapleMono-NF-unhinted.sha256"
        }
    },
    "installer": {
        "script": [
            "$currentBuildNumber = [int] (Get-ItemProperty \"HKLM:\\SOFTWARE\\Microsoft\\Windows NT\\CurrentVersion\").CurrentBuildNumber",
            "$windows1809BuildNumber = 17763",
            "$isPerUserFontInstallationSupported = $currentBuildNumber -ge $windows1809BuildNumber",
            "$isFontInstallationForAllUsers = $global -or !$isPerUserFontInstallationSupported",
            "if ($isFontInstallationForAllUsers -and !(is_admin)) {",
            "    error \"Administrator rights are required to install $app.\"",
            "    exit 1",
            "}",
            "$fontInstallDir = if ($isFontInstallationForAllUsers) { \"$env:windir\\Fonts\" } else { \"$env:LOCALAPPDATA\\Microsoft\\Windows\\Fonts\" }",
            "$registryRoot = if ($isFontInstallationForAllUsers) { \"HKLM\" } else { \"HKCU\" }",
            "$registryKey = \"${registryRoot}:\\SOFTWARE\\Microsoft\\Windows NT\\CurrentVersion\\Fonts\"",
            "New-Item $fontInstallDir -ItemType Directory -ErrorAction SilentlyContinue | Out-Null",
            "Get-ChildItem $dir -Filter '*.ttf' | ForEach-Object {",
            "    $value = if ($isFontInstallationForAllUsers) { $_.Name } else { \"$fontInstallDir\\$($_.Name)\" }",
            "    New-ItemProperty -Path $registryKey -Name $_.Name.Replace($_.Extension, ' (TrueType)') -Value $value -Force | Out-Null",
            "    Copy-Item $_.FullName -Destination $fontInstallDir",
            "}"
        ]
    },
    "uninstaller": {
        "script": [
            "$currentBuildNumber = [int] (Get-ItemProperty \"HKLM:\\SOFTWARE\\Microsoft\\Windows NT\\CurrentVersion\").CurrentBuildNumber",
            "$windows1809BuildNumber = 17763",
            "$isPerUserFontInstallationSupported = $currentBuildNumber -ge $windows1809BuildNumber",
            "$isFontInstallationForAllUsers = $global -or !$isPerUserFontInstallationSupported",
            "if ($isFontInstallationForAllUsers -and !(is_admin)) {",
            "    error \"Administrator rights are required to uninstall $app.\"",
            "    exit 1",
            "}",
            "$fontInstallDir = if ($isFontInstallationForAllUsers) { \"$env:windir\\Fonts\" } else { \"$env:LOCALAPPDATA\\Microsoft\\Windows\\Fonts\" }",
            "$registryRoot = if ($isFontInstallationForAllUsers) { \"HKLM\" } else { \"HKCU\" }",
            "$registryKey = \"${registryRoot}:\\SOFTWARE\\Microsoft\\Windows NT\\CurrentVersion\\Fonts\"",
            "Get-ChildItem $dir -Filter '*.ttf' | ForEach-Object {",
            "    Remove-ItemProperty -Path $registryKey -Name $_.Name.Replace($_.Extension, ' (TrueType)') -Force -ErrorAction SilentlyContinue",
            "    Remove-Item \"$fontInstallDir\\$($_.Name)\" -Force -ErrorAction SilentlyContinue",
            "}",
            "Write-Host \"Font family 'Maple Mono NF' has been uninstalled and will not be present after restarting your computer.\" -Foreground Magenta"
        ]
    }
}
