{
    "version": "1.53.5",
    "description": "Metabase Enterprise Edition is the easy way for everyone in your company to ask questions and learn from data.",
    "homepage": "https://www.metabase.com/enterprise/",
    "license": {
        "identifier": "Metabase Commercial License",
        "url": "https://www.metabase.com/license/commercial/"
    },
    "url": "https://downloads.metabase.com/enterprise/v1.53.5/metabase.jar",
    "hash": "34a499a74cc48946f623050084b3738e9830bc0a30465d45c09f08b52ae3b1a8",
    "bin": "metabase.jar",
    "suggest": {
        "JDK": [
            "java/oraclejdk",
            "java/openjdk",
            "java/adoptopenjdk-hotspot",
            "java/zulu"
        ]
    },
    "env_set": {
        "MB_PLUGINS_DIR": "$dir\\plugins",
        "MB_DB_FILE": "$dir\\data\\metabase.db"
    },
    "persist": [
        "data",
        "plugins"
    ],
    "checkver": {
        "url": "http://static.metabase.com/version-info-ee.json",
        "jsonpath": "$.latest.version",
        "regex": "v([\\d.]+)"
    },
    "autoupdate": {
        "url": "https://downloads.metabase.com/enterprise/v$version/metabase.jar",
        "hash": {
            "url": "https://mirror.ghproxy.com/https://github.com/metabase/metabase/releases/tag/v$version",
            "regex": "<code>$sha256"
        }
    }
}
