{
    "version": "1.0.1",
    "description": "Milvus Command Line Interface based on Milvus Python SDK.",
    "homepage": "https://github.com/zilliztech/milvus_cli",
    "license": "Apache-2.0",
    "architecture": {
        "64bit": {
            "url": "https://mirror.ghproxy.com/https://github.com/zilliztech/milvus_cli/releases/download/v1.0.1/milvus_cli.exe",
            "hash": "2965b390e359a657af8c1373ba0e01b9ad54f0b3499cde6d14f2153b41c6558a"
        }
    },
    "bin": "milvus_cli.exe",
    "checkver": "github",
    "autoupdate": {
        "architecture": {
            "64bit": {
                "url": "https://mirror.ghproxy.com/https://github.com/zilliztech/milvus_cli/releases/download/v$version/milvus_cli.exe"
            }
        }
    }
}
