{
    "version": "2.1.1.0",
    "description": "msstyleEditor is an editor for Windows Vista, 7, 8, 10 and 11 visual styles (.msstyles files).",
    "homepage": "https://github.com/nptr/msstyleEditor/",
    "license": "MIT",
    "url": "https://mirror.ghproxy.com/https://github.com/nptr/msstyleEditor/releases/download/2.1.1.0/msstyleEditor.zip",
    "hash": "8df9a57da0726e2e95469a9ee54fbdfd5c852146b664b601ad779c6b9016fe10",
    "shortcuts": [
        [
            "msstyleEditor.exe",
            "msstyleEditor"
        ]
    ],
    "checkver": "github",
    "autoupdate": {
        "url": "https://mirror.ghproxy.com/https://github.com/nptr/msstyleEditor/releases/download/$version/msstyleEditor.zip"
    }
}
