{
    "version": "5.13.1",
    "description": "A personal music streaming server.",
    "homepage": "http://mstream.io/",
    "license": "GPL-3.0-only",
    "url": "https://mirror.ghproxy.com/https://github.com/IrosTheBeggar/mStream/releases/download/v5.13.1/mStream-Server-Setup-5.13.1.exe#/dl.7z",
    "hash": "sha512:e8d19173cc9846b0b7e0194eecf62132189abef6efc976e1c6d7f073487e58169d05153b83624892249dc00917dba52edfdf6487b3197ab87e5dd69c5f69b004",
    "architecture": {
        "64bit": {
            "pre_install": "Expand-7zipArchive \"$dir\\`$PLUGINSDIR\\app-64.7z\" \"$dir\""
        },
        "32bit": {
            "pre_install": "Expand-7zipArchive \"$dir\\`$PLUGINSDIR\\app-32.7z\" \"$dir\""
        }
    },
    "post_install": "Remove-Item \"$dir\\`$PLUGINSDIR\", \"$dir\\Uninstall*\", \"$dir\\resources\\app-update.yml\"  -Force -Recurse",
    "bin": [
        [
            "mStream Server.exe",
            "mStream",
            "--user-data-dir=\"$dir\\User Data\""
        ]
    ],
    "shortcuts": [
        [
            "mStream Server.exe",
            "mStream",
            "--user-data-dir=\"$dir\\User Data\""
        ]
    ],
    "persist": "User Data",
    "checkver": {
        "url": "https://mirror.ghproxy.com/https://github.com/IrosTheBeggar/mStream/releases/latest/download/latest.yml",
        "regex": "version: ([\\d.]+)"
    },
    "autoupdate": {
        "url": "https://mirror.ghproxy.com/https://github.com/IrosTheBeggar/mStream/releases/download/v$version/mStream-Server-Setup-$version.exe#/dl.7z",
        "hash": {
            "url": "$baseurl/latest.yml",
            "regex": "sha512:\\s*$base64"
        }
    }
}
