{
    "version": "3.0.2",
    "description": "A m3u8 downloader with easy-to-use GUI.",
    "homepage": "https://github.com/nilaoda/N_m3u8DL-CLI",
    "license": "MIT",
    "url": "https://mirror.ghproxy.com/https://github.com/nilaoda/N_m3u8DL-CLI/releases/download/3.0.2/N_m3u8DL-CLI_v3.0.2_with_ffmpeg_and_SimpleG.zip",
    "hash": "5005b9d49fad0a4fb2c34eb60fbb25739d00d01651255258c2f408c7ee8dc7be",
    "bin": "N_m3u8DL-CLI.exe",
    "shortcuts": [
        [
            "N_m3u8DL-CLI-SimpleG.exe",
            "N_m3u8DL-CLI SimpleGUI"
        ]
    ],
    "pre_install": "Get-ChildItem \"$dir\" 'N_m3u8DL-CLI_v*.exe' | Select-Object -First 1 | Rename-Item -NewName 'N_m3u8DL-CLI.exe'",
    "checkver": "github",
    "autoupdate": {
        "url": "https://mirror.ghproxy.com/https://github.com/nilaoda/N_m3u8DL-CLI/releases/download/$version/N_m3u8DL-CLI_v$version_with_ffmpeg_and_SimpleG.zip"
    }
}
