{
    "version": "8.0.3",
    "description": "NatTypeTester is a tool that tests out what your NAT type is.",
    "homepage": "https://github.com/HMBSbige/NatTypeTester",
    "license": "MIT",
    "url": "https://mirror.ghproxy.com/https://github.com/HMBSbige/NatTypeTester/releases/download/8.0.3/NatTypeTester-8.0.3.7z",
    "hash": "7e144db8534bf027138af8d7ee8e96ff595acb6ae9453bce03ffecfd342a1c57",
    "architecture": {
        "64bit": {
            "installer": {
                "script": [
                    "Rename-Item -Path \"$dir\\NatTypeTester-x64.exe\" -NewName 'NatTypeTester.exe'",
                    "Remove-Item -Force \"$dir\\NatTypeTester-*.exe\""
                ]
            }
        },
        "32bit": {
            "installer": {
                "script": [
                    "Rename-Item -Path \"$dir\\NatTypeTester-x86.exe\" -NewName 'NatTypeTester.exe'",
                    "Remove-Item -Force \"$dir\\NatTypeTester-*.exe\""
                ]
            }
        }
    },
    "suggest": {
        "dotnet-runtime": "windowsdesktop-runtime"
    },
    "extract_dir": "NatTypeTester",
    "shortcuts": [
        [
            "NatTypeTester.exe",
            "NatTypeTester"
        ]
    ],
    "checkver": "github",
    "autoupdate": {
        "url": "https://mirror.ghproxy.com/https://github.com/HMBSbige/NatTypeTester/releases/download/$version/NatTypeTester-$version.7z"
    }
}
