{
    "version": "2.5.6",
    "description": "NextSSH 是一个 SSH 连接、管理工具，在终端的基础上增加了一些辅助功能，力图让远程操作变得简洁、直接。",
    "homepage": "https://codemutex.com/",
    "license": "Shareware",
    "architecture": {
        "64bit": {
            "url": "https://mirror.ghproxy.com/https://github.com/codemutex/NextSSH-userland/releases/download/v2.5.6/NextSSH-v2.5.6-win-x64.exe#/dl.7z",
            "hash": "e2d169763ef4edd1c9272da86456bf32437c6632c03fa7b5cd2bf8e9e07148c0",
            "pre_install": [
                "Expand-7zipArchive \"$dir\\`$PLUGINSDIR\\app-64.7z\" \"$dir\"",
                "Remove-Item \"$dir\\`$PLUGINSDIR\", \"$dir\\Uninstall*\" -Force -Recurse"
            ]
        }
    },
    "bin": [
        [
            "NextSSH.exe",
            "NextSSH",
            "--user-data-dir=\"$dir\\User Data\""
        ]
    ],
    "shortcuts": [
        [
            "NextSSH.exe",
            "NextSSH",
            "--user-data-dir=\"$dir\\User Data\""
        ]
    ],
    "persist": "User Data",
    "checkver": {
        "url": "https://mirror.ghproxy.com/https://github.com/codemutex/NextSSH-userland/releases/latest",
        "regex": "/codemutex/NextSSH-userland/releases/tag/v([^/]+?)\""
    },
    "autoupdate": {
        "architecture": {
            "64bit": {
                "url": "https://mirror.ghproxy.com/https://github.com/codemutex/NextSSH-userland/releases/download/v$version/NextSSH-v$version-win-x64.exe#/dl.7z"
            }
        },
        "hash": {
            "url": "$baseurl/shasum.txt"
        }
    }
}
