{
    "version": "25.01r5618",
    "description": "A light-weight Scintilla based text editor for Windows with syntax highlighting, code folding, auto-completion.",
    "homepage": "https://github.com/zufuliu/notepad4",
    "license": "BSD-3-Clause",
    "architecture": {
        "64bit": {
            "url": "https://mirror.ghproxy.com/https://github.com/zufuliu/notepad4/releases/download/v25.01r5618/Notepad4_HD_i18n_AVX2_v25.01r5618.zip",
            "hash": "8584511e82b2c8107c800d51024555b540c424f4f212d3b164ff65050c9a7f7c"
        },
        "32bit": {
            "url": "https://mirror.ghproxy.com/https://github.com/zufuliu/notepad4/releases/download/v25.01r5618/Notepad4_i18n_Win32_v25.01r5618.zip",
            "hash": "09a4dea9db14539d18e8029bd7fce8a2b29d64dda653f048b3d4fae94e212a7f"
        },
        "arm64": {
            "url": "https://mirror.ghproxy.com/https://github.com/zufuliu/notepad4/releases/download/v25.01r5618/Notepad4_HD_i18n_ARM64_v25.01r5618.zip",
            "hash": "3aa356dbeceafa5ab12b34dc2c4c01c38bad484281164bd2ff684611503099dc"
        }
    },
    "bin": "Notepad4.exe",
    "shortcuts": [
        [
            "Notepad4.exe",
            "Notepad4"
        ]
    ],
    "persist": [
        "Notepad4.ini",
        "matepath.ini"
    ],
    "checkver": {
        "url": "https://mirror.ghproxy.com/https://github.com/zufuliu/notepad4/releases.atom",
        "regex": "Repository/\\d+/v?(.+?)<"
    },
    "autoupdate": {
        "architecture": {
            "64bit": {
                "url": "https://mirror.ghproxy.com/https://github.com/zufuliu/notepad4/releases/download/v$version/Notepad4_HD_i18n_AVX2_v$version.zip"
            },
            "32bit": {
                "url": "https://mirror.ghproxy.com/https://github.com/zufuliu/notepad4/releases/download/v$version/Notepad4_i18n_Win32_v$version.zip"
            },
            "arm64": {
                "url": "https://mirror.ghproxy.com/https://github.com/zufuliu/notepad4/releases/download/v$version/Notepad4_HD_i18n_ARM64_v$version.zip"
            }
        }
    }
}
