{
    "version": "0.2.6",
    "description": "A ping tool in Rust with real-time data and visualizations.",
    "homepage": "https://github.com/hanshuaikang/Nping",
    "license": "MIT",
    "architecture": {
        "64bit": {
            "url": "https://mirror.ghproxy.com/https://github.com/hanshuaikang/Nping/releases/download/v0.2.6/nping-x86_64-pc-windows-msvc.zip",
            "hash": "2b64e23c0e301b7085f23c11ea44092966dca4a67e72c2a4297bd0f3514aa98e"
        }
    },
    "bin": "nping.exe",
    "checkver": "github",
    "autoupdate": {
        "architecture": {
            "64bit": {
                "url": "https://mirror.ghproxy.com/https://github.com/hanshuaikang/Nping/releases/download/v$version/nping-x86_64-pc-windows-msvc.zip"
            }
        }
    }
}
