{
    "version": "0.4",
    "description": "A GUI tool to removes Ads from various places around Windows 11.",
    "homepage": "https://github.com/xM4ddy/OFGB",
    "license": "Unlicense",
    "architecture": {
        "64bit": {
            "url": "https://mirror.ghproxy.com/https://github.com/xM4ddy/OFGB/releases/download/v0.4/OFGB.exe",
            "hash": "1cf97ccebcdf33ce37199fcef01c348faed81077eb340e36da35171cbb7ba1ae"
        }
    },
    "shortcuts": [
        [
            "OFGB.exe",
            "OFGB"
        ]
    ],
    "checkver": "github",
    "autoupdate": {
        "architecture": {
            "64bit": {
                "url": "https://mirror.ghproxy.com/https://github.com/xM4ddy/OFGB/releases/download/v$version/OFGB.exe"
            }
        }
    }
}
