{
    "version": "1.5.0",
    "description": "OneNote Md Exporter is a console application running on Windows that exports your OneNote notebooks in different markdown formats.",
    "homepage": "https://github.com/alxnbl/onenote-md-exporter",
    "license": "GPL-3.0-only",
    "architecture": {
        "64bit": {
            "url": "https://mirror.ghproxy.com/https://github.com/alxnbl/onenote-md-exporter/releases/download/v1.5.0/OneNoteMdExporter.v1.5.0.zip",
            "hash": "ce2fd4adfcb35bd30fbce6394347f368c50215f231ef57e83b04a11795a57c25"
        }
    },
    "bin": "OneNoteMdExporter.exe",
    "shortcuts": [
        [
            "OneNoteMdExporter.exe",
            "OneNote Md Exporter"
        ]
    ],
    "persist": "appsettings.json",
    "checkver": "github",
    "autoupdate": {
        "architecture": {
            "64bit": {
                "url": "https://mirror.ghproxy.com/https://github.com/alxnbl/onenote-md-exporter/releases/download/v$version/OneNoteMdExporter.v$version.zip"
            }
        }
    }
}
