{
    "version": "0.3.0",
    "description": "A CLI for building OPA policies into OCI images.",
    "homepage": "https://www.openpolicycontainers.com/",
    "license": "Apache-2.0",
    "architecture": {
        "64bit": {
            "url": "https://mirror.ghproxy.com/https://github.com/opcr-io/policy/releases/download/v0.3.0/policy0.3.0_windows_x86_64.zip",
            "hash": "3bca28cd49d516ff44ec0d25d65d46fef0d46d2c014624a4f6277bf0a2074366"
        }
    },
    "bin": "policy.exe",
    "checkver": {
        "github": "https://github.com/opcr-io/policy"
    },
    "autoupdate": {
        "architecture": {
            "64bit": {
                "url": "https://mirror.ghproxy.com/https://github.com/opcr-io/policy/releases/download/v$version/policy$version_windows_x86_64.zip"
            }
        },
        "hash": {
            "url": "$baseurl/checksums.txt"
        }
    }
}
