{
    "version": "5.1.0",
    "description": "Run the program with the specified permission level on Windows.",
    "homepage": "https://github.com/M2Team/Privexec",
    "license": "MIT",
    "architecture": {
        "64bit": {
            "url": "https://mirror.ghproxy.com/https://github.com/M2Team/Privexec/releases/download/5.1.0/Privexec-5.1.0-win-x64.zip",
            "hash": "ce8a45f602f849cd6202ecc5121ceea6b6c9cc0d78d61025d46bcc9a32f2b2b2",
            "extract_dir": "Privexec-5.1.0-win-x64"
        },
        "32bit": {
            "url": "https://mirror.ghproxy.com/https://github.com/M2Team/Privexec/releases/download/5.1.0/Privexec-5.1.0-win-x86.zip",
            "hash": "29fbbeb534db576d557c0113675e83687bdb059d9377383ab52af5b2d197131d",
            "extract_dir": "Privexec-5.1.0-win-x86"
        }
    },
    "shortcuts": [
        [
            "Privexec.exe",
            "Privexec"
        ],
        [
            "AppExec.exe",
            "Privexec AppContainer Exec"
        ]
    ],
    "bin": "wsudo.exe",
    "persist": "Privexec.json",
    "checkver": {
        "url": "https://mirror.ghproxy.com/https://github.com/M2Team/Privexec/releases/latest",
        "regex": "/releases/tag/([\\w-.]+)\""
    },
    "autoupdate": {
        "architecture": {
            "64bit": {
                "url": "https://mirror.ghproxy.com/https://github.com/M2Team/Privexec/releases/download/$version/Privexec-$matchHead-win-x64.zip",
                "extract_dir": "Privexec-$matchHead-win-x64"
            },
            "32bit": {
                "url": "https://mirror.ghproxy.com/https://github.com/M2Team/Privexec/releases/download/$version/Privexec-$matchHead-win-x86.zip",
                "extract_dir": "Privexec-$matchHead-win-x86"
            }
        }
    }
}
