{
    "version": "1.46.0",
    "description": "A simple and flexible scheduler and orchestrator to manage non-containerized applications.",
    "homepage": "https://f1bonacc1.github.io/process-compose/",
    "license": "Apache-2.0",
    "architecture": {
        "64bit": {
            "url": "https://mirror.ghproxy.com/https://github.com/F1bonacc1/process-compose/releases/download/v1.46.0/process-compose_windows_amd64.zip",
            "hash": "9cb0e9fd97e90539a2022b955ae490761dcaaddf2e669e03e3bd21bb6122263e"
        },
        "arm64": {
            "url": "https://mirror.ghproxy.com/https://github.com/F1bonacc1/process-compose/releases/download/v1.46.0/process-compose_windows_arm64.zip",
            "hash": "c51306e80a7c9611a9397a19846504d921e5b99a5816a3282366b30befadcef3"
        }
    },
    "bin": "process-compose.exe",
    "checkver": {
        "github": "https://github.com/F1bonacc1/process-compose"
    },
    "autoupdate": {
        "architecture": {
            "64bit": {
                "url": "https://mirror.ghproxy.com/https://github.com/F1bonacc1/process-compose/releases/download/v$version/process-compose_windows_amd64.zip"
            },
            "arm64": {
                "url": "https://mirror.ghproxy.com/https://github.com/F1bonacc1/process-compose/releases/download/v$version/process-compose_windows_arm64.zip"
            }
        },
        "hash": {
            "url": "$baseurl/process-compose_checksums.txt"
        }
    }
}
