{
    "version": "0.5.0-pre",
    "description": "A socks5 proxy injection tool for Windows, making selected processes proxy-able.",
    "homepage": "https://github.com/PragmaTwice/proxinject",
    "license": "Apache-2.0",
    "architecture": {
        "64bit": {
            "url": "https://mirror.ghproxy.com/https://github.com/PragmaTwice/proxinject/releases/download/v0.5.0-pre/proxinject-v0.5.0-pre-x64.zip",
            "hash": "04a04927705d8f8af47195e0fabc5ea2aa5b5fdfe8c648fb685ea99930c1a090"
        }
    },
    "extract_dir": "release",
    "bin": "proxinjector-cli.exe",
    "shortcuts": [
        [
            "proxinjector.exe",
            "proxinject"
        ]
    ],
    "checkver": {
        "url": "https://mirror.ghproxy.com/https://github.com/PragmaTwice/proxinject/releases",
        "regex": "/proxinject/releases/tag/v([^/]+?)\""
    },
    "autoupdate": {
        "architecture": {
            "64bit": {
                "url": "https://mirror.ghproxy.com/https://github.com/PragmaTwice/proxinject/releases/download/v$version/proxinject-v$version-x64.zip"
            }
        }
    }
}
