{
    "version": "5.0.4.10",
    "description": "qBittorrent Enhanced Edition is based on qBittorrent, it's aimed at block a leeching clients automatically.",
    "homepage": "https://github.com/c0re100/qBittorrent-Enhanced-Edition",
    "license": "GPL-2.0-only",
    "architecture": {
        "64bit": {
            "url": "https://mirror.ghproxy.com/https://github.com/c0re100/qBittorrent-Enhanced-Edition/releases/download/release-5.0.4.10/qbittorrent_enhanced_5.0.4.10_x64_setup.exe#/dl.7z",
            "hash": "ff2034c6ebc5c8e2b5954d09886b9556e88deff135884ea0e57ef901b24360c7"
        }
    },
    "pre_install": "if (!(Test-Path \"$persist_dir\\profile\\\")) { New-Item -Path \"$dir\\profile\\\" -ItemType Directory | Out-Null }",
    "post_install": "Remove-Item \"$dir\\`$PLUGINSDIR\", \"$dir\\uninst*\" -Force -Recurse",
    "persist": "profile",
    "shortcuts": [
        [
            "qbittorrent.exe",
            "qBittorrent Enhanced"
        ]
    ],
    "checkver": {
        "url": "https://mirror.ghproxy.com/https://github.com/c0re100/qBittorrent-Enhanced-Edition/releases/latest",
        "regex": "/releases/tag/release-v?([\\d.]+)\""
    },
    "autoupdate": {
        "architecture": {
            "64bit": {
                "url": "https://mirror.ghproxy.com/https://github.com/c0re100/qBittorrent-Enhanced-Edition/releases/download/release-$version/qbittorrent_enhanced_$version_x64_setup.exe#/dl.7z"
            }
        }
    }
}
