{
    "version": "1.0.7",
    "description": "A multi-connection TCP forwarder created for accelerating TCP connections.",
    "homepage": "https://github.com/ihciah/rabbit-tcp",
    "license": "AGPL-3.0-only",
    "architecture": {
        "64bit": {
            "url": "https://mirror.ghproxy.com/https://github.com/ihciah/rabbit-tcp/releases/download/v1.0.7/rabbit-windows-amd64.zip",
            "hash": "c8fdac14021e39c1c9296ea21cce13d78caaa17d161a82f6081c1f48a1d57044"
        },
        "32bit": {
            "url": "https://mirror.ghproxy.com/https://github.com/ihciah/rabbit-tcp/releases/download/v1.0.7/rabbit-windows-386.zip",
            "hash": "6d4c015b0cb3b19f12000b9679e474b203aef9ef0311f36274b99315db630f8f"
        }
    },
    "pre_install": "Get-ChildItem \"$dir\" 'rabbit-*.exe' | Select-Object -First 1 | Rename-Item -NewName 'rabbit.exe'",
    "bin": "rabbit.exe",
    "checkver": "github",
    "autoupdate": {
        "architecture": {
            "64bit": {
                "url": "https://mirror.ghproxy.com/https://github.com/ihciah/rabbit-tcp/releases/download/v$version/rabbit-windows-amd64.zip"
            },
            "32bit": {
                "url": "https://mirror.ghproxy.com/https://github.com/ihciah/rabbit-tcp/releases/download/v$version/rabbit-windows-386.zip"
            }
        }
    }
}
