{
    "version": "0.82",
    "description": "readpe (pev) is an full-featured command line toolkit to work with and analyze PE (Portable Executables) binaries.",
    "homepage": "https://github.com/mentebinaria/readpe",
    "license": "GPL-2.0-only|GPL-3.0-only",
    "architecture": {
        "64bit": {
            "url": "https://mirror.ghproxy.com/https://github.com/mentebinaria/readpe/releases/download/v0.82/pev-0.82-win.zip",
            "extract_dir": "pev-0.82-win",
            "hash": "328f5324522715a5191acd6887bdfc86779a7ce7becffee64b36ce372cbb9ea4"
        }
    },
    "bin": [
        "cpload.exe",
        "ofs2rva.exe",
        "pedis.exe",
        "pehash.exe",
        "peldd.exe",
        "pepack.exe",
        "peres.exe",
        "pescan.exe",
        "pesec.exe",
        "pestr.exe",
        "readpe.exe",
        "rva2ofs.exe"
    ],
    "checkver": "github",
    "autoupdate": {
        "architecture": {
            "64bit": {
                "url": "https://mirror.ghproxy.com/https://github.com/mentebinaria/readpe/releases/download/v$version/pev-$version-win.zip",
                "extract_dir": "pev-$version-win"
            }
        }
    }
}
