{
    "version": "0.0.4",
    "description": "A lightweight network proxy tool write by c++20 for low-end boxes or embedded devices.",
    "homepage": "https://github.com/yinqiwen/snova-asio",
    "license": "Apache-2.0",
    "architecture": {
        "64bit": {
            "url": "https://mirror.ghproxy.com/https://github.com/yinqiwen/snova-asio/releases/download/v0.0.4/snova_asio_v0.0.4_windows_amd64.tar.bz2",
            "hash": "9e519499bed7d0f57b413ac941e7c8b63818e1d346be969761a34dac656a4f79"
        }
    },
    "pre_install": "Rename-Item -Path \"$dir\\snova\" -NewName 'snova.exe'",
    "bin": "snova.exe",
    "checkver": "github",
    "autoupdate": {
        "architecture": {
            "64bit": {
                "url": "https://mirror.ghproxy.com/https://github.com/yinqiwen/snova-asio/releases/download/v$version/snova_asio_v$version_windows_amd64.tar.bz2"
            }
        }
    }
}
