{
    "version": "1.11.2",
    "description": "SPIRE (the SPIFFE Runtime Environment) is a toolchain of APIs for establishing trust between software systems across a wide variety of hosting platforms.",
    "homepage": "https://github.com/spiffe/spire",
    "license": "Apache-2.0",
    "architecture": {
        "64bit": {
            "url": "https://mirror.ghproxy.com/https://github.com/spiffe/spire/releases/download/v1.11.2/spire-1.11.2-windows-amd64.zip",
            "hash": "2bae4dbdf4db047e5debd57adc1913c27c4a8c4e153973c67141cd5cbcdf42ac"
        }
    },
    "extract_dir": "spire-1.11.2",
    "bin": [
        "bin\\spire-server.exe",
        "bin\\spire-agent.exe"
    ],
    "persist": "conf",
    "checkver": "github",
    "autoupdate": {
        "architecture": {
            "64bit": {
                "url": "https://mirror.ghproxy.com/https://github.com/spiffe/spire/releases/download/v$version/spire-$version-windows-amd64.zip",
                "hash": {
                    "url": "$baseurl/spire-$version-windows-amd64_sha256sum.txt",
                    "regex": "$sha256"
                }
            }
        },
        "extract_dir": "spire-$version"
    }
}
