{
    "version": "1.0.5",
    "description": "tabula-cli (tabula-java) is a command-line tool to extract tables from PDFs.",
    "homepage": "https://github.com/tabulapdf/tabula-java",
    "license": "MIT",
    "url": "https://mirror.ghproxy.com/https://github.com/tabulapdf/tabula-java/releases/download/v1.0.5/tabula-1.0.5-jar-with-dependencies.jar#/tabula-cli.jar",
    "hash": "2161e3fff65939d7ce0812479cf9ca36860db5697f7fc1fa01161ed4092a0745",
    "bin": [
        "tabula-cli.jar",
        [
            "tabula-cli.jar",
            "tabula"
        ]
    ],
    "suggest": {
        "JDK": [
            "java/oraclejdk",
            "java/openjdk",
            "java/adoptopenjdk-hotspot",
            "java/zulu"
        ]
    },
    "checkver": "github",
    "autoupdate": {
        "url": "https://mirror.ghproxy.com/https://github.com/tabulapdf/tabula-java/releases/download/v$version/tabula-$version-jar-with-dependencies.jar#/tabula-cli.jar"
    }
}
