{
    "version": "2.6.33",
    "description": "Team IDE 团队在线开发工具， 集成SSH、FTP、MySql、Redis、Zookeeper、Kafka、Elasticsearch等管理工具",
    "homepage": "https://github.com/team-ide/teamide",
    "license": "Apache-2.0",
    "architecture": {
        "64bit": {
            "url": "https://mirror.ghproxy.com/https://github.com/team-ide/teamide/releases/download/v2.6.33/TeamIDE-win-2.6.33.zip",
            "hash": "83a876073bacde8a77f65acac252a7ee30356d1c5a258224cf0bd12ff0cebf64"
        }
    },
    "pre_install": "Remove-Item \"$dir\\resources\\app-update.yml\" -Force -Recurse",
    "shortcuts": [
        [
            "TeamIDE.exe",
            "Team IDE"
        ]
    ],
    "notes": "TeamIDE is NOT portable.",
    "checkver": "github",
    "autoupdate": {
        "architecture": {
            "64bit": {
                "url": "https://mirror.ghproxy.com/https://github.com/team-ide/teamide/releases/download/v$version/TeamIDE-win-$version.zip"
            }
        }
    }
}
