{
    "version": "1.0.10",
    "description": "A terminal emulator and SSH client for Windows, macOS and Linux.",
    "homepage": "https://github.com/TermoraDev/termora",
    "license": "AGPL-3.0-only|Proprietary",
    "architecture": {
        "64bit": {
            "url": "https://mirror.ghproxy.com/https://github.com/TermoraDev/termora/releases/download/1.0.10/termora-1.0.10-windows-x86-64.zip",
            "hash": "b377d889779c723f91dd866e2d2f527fbfe62cd40839131a7f5c3d5a63e523a9"
        },
        "arm64": {
            "url": "https://mirror.ghproxy.com/https://github.com/TermoraDev/termora/releases/download/1.0.10/termora-1.0.10-windows-aarch64.zip",
            "hash": "ea94702ed1c32d8749abf07b91758376ed290d9fb0c2586b4416b148ae644429"
        }
    },
    "extract_dir": "Termora",
    "shortcuts": [
        [
            "Termora.exe",
            "Termora"
        ]
    ],
    "notes": "Termora is NOT portable.",
    "checkver": "github",
    "autoupdate": {
        "architecture": {
            "64bit": {
                "url": "https://mirror.ghproxy.com/https://github.com/TermoraDev/termora/releases/download/$version/termora-$version-windows-x86-64.zip"
            },
            "arm64": {
                "url": "https://mirror.ghproxy.com/https://github.com/TermoraDev/termora/releases/download/$version/termora-$version-windows-aarch64.zip"
            }
        }
    }
}
