{
    "version": "3.22.18",
    "description": "An application that tracks your time by monitoring your active window title and idle time.",
    "homepage": "https://github.com/MayGo/tockler",
    "license": "GPL-2.0-only",
    "architecture": {
        "64bit": {
            "url": "https://mirror.ghproxy.com/https://github.com/MayGo/tockler/releases/download/v3.22.18/tockler-3.22.18-setup-win-x64.exe#/dl.7z",
            "hash": "sha512:aff1861bdefe5c183c73128937a9bcc0510e40c9e73a2772650f06422486cbbadd443b1d29432bb81c8bf49d6f786f6dac25418ba132a34bef056800c9c1d58d",
            "pre_install": "Expand-7zipArchive \"$dir\\`$PLUGINSDIR\\app-64.7z\" \"$dir\""
        },
        "32bit": {
            "url": "https://mirror.ghproxy.com/https://github.com/MayGo/tockler/releases/download/v3.22.18/tockler-3.22.18-setup-win-ia32.exe#/dl.7z",
            "hash": "sha512:14eefe4ddf00e2130d46aa8bf65a89d765986d8be640922d9398ace7775f958735cc369389249bb9dcec2a1d0e3c38910aeb4b5cb7e16a791a656f5852ae7f29",
            "pre_install": "Expand-7zipArchive \"$dir\\`$PLUGINSDIR\\app-32.7z\" \"$dir\""
        }
    },
    "post_install": "Remove-Item \"$dir\\`$PLUGINSDIR\", \"$dir\\Uninstall*\", \"$dir\\resources\\app-update.yml\"  -Force -Recurse",
    "bin": [
        [
            "Tockler.exe",
            "Tockler",
            "--user-data-dir=\"$dir\\User Data\""
        ]
    ],
    "shortcuts": [
        [
            "Tockler.exe",
            "Tockler",
            "--user-data-dir=\"$dir\\User Data\""
        ]
    ],
    "persist": "User Data",
    "checkver": "github",
    "autoupdate": {
        "architecture": {
            "64bit": {
                "url": "https://mirror.ghproxy.com/https://github.com/MayGo/tockler/releases/download/v$version/tockler-$version-setup-win-x64.exe#/dl.7z"
            },
            "32bit": {
                "url": "https://mirror.ghproxy.com/https://github.com/MayGo/tockler/releases/download/v$version/tockler-$version-setup-win-ia32.exe#/dl.7z"
            }
        },
        "hash": {
            "url": "$baseurl/latest.yml",
            "regex": "$basename\\s+sha512:\\s$base64"
        }
    }
}
