{
    "version": "1.6.999.3",
    "description": "Windows Feature Control GUI based on ViVe / ViVeTool.",
    "homepage": "https://github.com/PeterStrick/ViVeTool-GUI",
    "license": "GPL-3.0-only",
    "url": "https://mirror.ghproxy.com/https://github.com/PeterStrick/ViVeTool-GUI/releases/download/v1.6.999.3/v1.7_PRE_RELEASE_HOTFIX.zip",
    "hash": "8235e17ad5bdea40716bc7c0e452ac08b45dae2cef87835574e326f8301ea140",
    "shortcuts": [
        [
            "ViVeTool_GUI.exe",
            "ViVeTool GUI"
        ]
    ],
    "checkver": {
        "url": "https://api.github.com/repos/PeterStrick/ViVeTool-GUI/releases/latest",
        "regex": "/releases/download/v([\\d.]+)/(?<filename>[^/]+).zip"
    },
    "autoupdate": {
        "url": "https://mirror.ghproxy.com/https://github.com/PeterStrick/ViVeTool-GUI/releases/download/v$version/$matchFilename.zip"
    }
}
