{
    "version": "1.112.0",
    "description": "Utils for Victoria Metrics Enterprise",
    "homepage": "https://docs.victoriametrics.com/vmctl.html",
    "license": "Apache-2.0",
    "architecture": {
        "64bit": {
            "url": "https://mirror.ghproxy.com/https://github.com/VictoriaMetrics/VictoriaMetrics/releases/download/v1.112.0/vmutils-windows-amd64-v1.112.0-enterprise.zip",
            "hash": "67b106a31616b0b2b355a86de91d7814662c825cd391877b8a8d47a5ca2cd3a7"
        }
    },
    "bin": [
        "vmagent.exe",
        "vmalert.exe",
        "vmauth.exe",
        "vmbackup.exe",
        "vmctl.exe",
        "vmrestore.exe",
        "vmbackupmanager.exe",
        "vmgateway.exe"
    ],
    "pre_install": "Get-ChildItem \"$dir\" 'vm*.exe' | ForEach-Object { Rename-Item $_.Fullname ($_.Name -Replace '-windows-amd64-prod') }",
    "checkver": {
        "github": "https://github.com/VictoriaMetrics/VictoriaMetrics"
    },
    "autoupdate": {
        "architecture": {
            "64bit": {
                "url": "https://mirror.ghproxy.com/https://github.com/VictoriaMetrics/VictoriaMetrics/releases/download/v$version/vmutils-windows-amd64-v$version-enterprise.zip",
                "hash": {
                    "url": "$baseurl/vmutils-windows-amd64-v$version-enterprise_checksums.txt"
                }
            }
        }
    }
}
