{
    "version": "1.0.29",
    "description": "通过命令行调用火山引擎云服务的OpenAPI，便于自动、高效管理云上资源",
    "homepage": "https://www.volcengine.com/docs/83927/1176799",
    "license": "Apache-2.0",
    "architecture": {
        "64bit": {
            "url": "https://mirror.ghproxy.com/https://github.com/volcengine/volcengine-cli/releases/download/v1.0.29/volcengine-cli_1.0.29_windows_amd64.zip",
            "hash": "33c28a21cf30995e52c67e9d48868ec4704579975fb29fb55327a6bc5d72886f"
        },
        "32bit": {
            "url": "https://mirror.ghproxy.com/https://github.com/volcengine/volcengine-cli/releases/download/v1.0.29/volcengine-cli_1.0.29_windows_386.zip",
            "hash": "8f80053f3b8a2a9942b537426b451150ba6cb1fff4fc587c30d8ce12fdb92bfe"
        },
        "arm64": {
            "url": "https://mirror.ghproxy.com/https://github.com/volcengine/volcengine-cli/releases/download/v1.0.29/volcengine-cli_1.0.29_windows_arm64.zip",
            "hash": "8f9dd57d2985e6385c3e2062d53770a8e68391f4caab0b5f48e06e8e4adb6eff"
        }
    },
    "bin": "ve.exe",
    "checkver": {
        "github": "https://github.com/volcengine/volcengine-cli"
    },
    "autoupdate": {
        "architecture": {
            "64bit": {
                "url": "https://mirror.ghproxy.com/https://github.com/volcengine/volcengine-cli/releases/download/v$version/volcengine-cli_$version_windows_amd64.zip"
            },
            "32bit": {
                "url": "https://mirror.ghproxy.com/https://github.com/volcengine/volcengine-cli/releases/download/v$version/volcengine-cli_$version_windows_386.zip"
            },
            "arm64": {
                "url": "https://mirror.ghproxy.com/https://github.com/volcengine/volcengine-cli/releases/download/v$version/volcengine-cli_$version_windows_arm64.zip"
            }
        },
        "hash": {
            "url": "$baseurl/volcengine-cli_$version_SHA256SUMS"
        }
    }
}
