{
    "version": "1.0.0.02",
    "description": "A Windows GUI utility to handle asar (electron archive) files.",
    "homepage": "https://github.com/aardio/WinAsar",
    "license": "MIT",
    "url": "https://mirror.ghproxy.com/https://github.com/aardio/WinAsar/raw/master/dist/WinAsar.7z",
    "hash": "818200b7b5eff0c3afa29b467a00cf975faf0d7ec409b7946ae0fdce53ab457c",
    "bin": "WinAsar.exe",
    "shortcuts": [
        [
            "WinAsar.exe",
            "WinAsar"
        ]
    ],
    "checkver": {
        "url": "https://mirror.ghproxy.com/https://github.com/aardio/WinAsar/raw/master/default.aproj",
        "regex": "ProductVersion=\"([\\d.]+)\""
    },
    "autoupdate": {
        "url": "https://mirror.ghproxy.com/https://github.com/aardio/WinAsar/raw/master/dist/WinAsar.7z"
    }
}
