{
    "version": "1.15.0",
    "description": "Switch windows of same app with alt + ` on Windows.",
    "homepage": "https://github.com/sigoden/window-switcher",
    "license": "MIT",
    "architecture": {
        "64bit": {
            "url": "https://mirror.ghproxy.com/https://github.com/sigoden/window-switcher/releases/download/v1.15.0/window-switcher-v1.15.0-windows-64.zip",
            "hash": "658d4e3dbb92e739f8f679be0e3839f2a7052fd5a7ad0e66479223cec545145f"
        },
        "32bit": {
            "url": "https://mirror.ghproxy.com/https://github.com/sigoden/window-switcher/releases/download/v1.15.0/window-switcher-v1.15.0-windows-32.zip",
            "hash": "389794d34aad450dfa8a7e2aac575bc05ba427beb7203fd8930355c57113341d"
        },
        "arm64": {
            "url": "https://mirror.ghproxy.com/https://github.com/sigoden/window-switcher/releases/download/v1.15.0/window-switcher-v1.15.0-windows-arm64.zip",
            "hash": "73b1677d6e804eb06da8cb42d18377d55b93ad4537e487a608c489ac0ac19a9b"
        }
    },
    "shortcuts": [
        [
            "window-switcher.exe",
            "Window Switcher"
        ]
    ],
    "checkver": "github",
    "autoupdate": {
        "architecture": {
            "64bit": {
                "url": "https://mirror.ghproxy.com/https://github.com/sigoden/window-switcher/releases/download/v$version/window-switcher-v$version-windows-64.zip"
            },
            "32bit": {
                "url": "https://mirror.ghproxy.com/https://github.com/sigoden/window-switcher/releases/download/v$version/window-switcher-v$version-windows-32.zip"
            },
            "arm64": {
                "url": "https://mirror.ghproxy.com/https://github.com/sigoden/window-switcher/releases/download/v$version/window-switcher-v$version-windows-arm64.zip"
            }
        }
    }
}
