{
    "version": "2.0.6",
    "description": "An advanced utility that lets you explore the Windows Object Manager namespace.",
    "homepage": "https://github.com/hfiref0x/WinObjEx64",
    "license": "BSD-2-Clause",
    "architecture": {
        "64bit": {
            "url": "https://mirror.ghproxy.com/https://github.com/hfiref0x/WinObjEx64/releases/download/v2.0.6/WinObjEx64_2.0.6.zip",
            "hash": "e3f8fd5004627bd2a92bfd96674cc55cb181e295de48b84bae4575e3c9ff1293"
        }
    },
    "shortcuts": [
        [
            "WinObjEx64.exe",
            "WinObjEx64"
        ]
    ],
    "checkver": "github",
    "autoupdate": {
        "architecture": {
            "64bit": {
                "url": "https://mirror.ghproxy.com/https://github.com/hfiref0x/WinObjEx64/releases/download/v$version/WinObjEx64_$version.zip"
            }
        }
    }
}
