{
    "version": "2.9.2",
    "description": "A tool to unlock the bootloader and enable Root Access on Windows Phones.",
    "homepage": "https://github.com/ReneLergner/WPinternals",
    "license": "MIT",
    "architecture": {
        "64bit": {
            "url": "https://mirror.ghproxy.com/https://github.com/ReneLergner/WPinternals/releases/download/2.9.2/win-x64.zip",
            "hash": "d13a52f7e74fcd5422bdde25706b5e246284fd3af99b66d98b11dd044c69d5f2"
        },
        "32bit": {
            "url": "https://mirror.ghproxy.com/https://github.com/ReneLergner/WPinternals/releases/download/2.9.2/win-x86.zip",
            "hash": "88c8ef8396b4f9382bd2f7a8e9185875e759fe99b6443bfee3deb64a3bbe5ab7"
        }
    },
    "shortcuts": [
        [
            "WPinternals.exe",
            "WPinternals"
        ]
    ],
    "checkver": "github",
    "autoupdate": {
        "architecture": {
            "64bit": {
                "url": "https://mirror.ghproxy.com/https://github.com/ReneLergner/WPinternals/releases/download/$version/win-x64.zip"
            },
            "32bit": {
                "url": "https://mirror.ghproxy.com/https://github.com/ReneLergner/WPinternals/releases/download/$version/win-x86.zip"
            }
        }
    }
}
