{
    "version": "0.6.1",
    "description": "wssocks can proxy TCP connections via socks5.",
    "homepage": "https://github.com/genshen/wssocks",
    "license": "MIT",
    "architecture": {
        "64bit": {
            "url": "https://mirror.ghproxy.com/https://github.com/genshen/wssocks/releases/download/v0.6.1/wssocks-windows-amd64.exe#/wssocks.exe",
            "hash": "c344a4dc020493f12db1448caf104638d63fb8922afcbfe54206438b269d037d"
        }
    },
    "bin": "wssocks.exe",
    "checkver": "github",
    "autoupdate": {
        "architecture": {
            "64bit": {
                "url": "https://mirror.ghproxy.com/https://github.com/genshen/wssocks/releases/download/v$version/wssocks-windows-amd64.exe#/wssocks.exe"
            }
        }
    }
}
