{
    "version": "1.2.47",
    "description": "A lightweight plist editor with rich features.",
    "homepage": "https://github.com/ic005k/Xplist",
    "license": "MIT",
    "architecture": {
        "64bit": {
            "url": "https://mirror.ghproxy.com/https://github.com/ic005k/Xplist/releases/download/1.2.47/Xplist-Win64.zip",
            "extract_dir": "Xplist-Win64",
            "hash": "4612d3ff3692e8be95e2c445b7ee191562796805e0e1c666a19dc8b688614265"
        }
    },
    "bin": "Xplist.exe",
    "shortcuts": [
        [
            "Xplist.exe",
            "Xplist"
        ]
    ],
    "checkver": "github",
    "autoupdate": {
        "architecture": {
            "64bit": {
                "url": "https://mirror.ghproxy.com/https://github.com/ic005k/Xplist/releases/download/$version/Xplist-Win64.zip"
            }
        }
    }
}
