{
    "version": "0.4.6",
    "description": "zfind allows you to search for files using a SQL-WHERE filter.",
    "homepage": "https://github.com/laktak/zfind",
    "license": "MIT",
    "architecture": {
        "64bit": {
            "url": "https://mirror.ghproxy.com/https://github.com/laktak/zfind/releases/download/v0.4.6/zfind-windows-amd64.zip",
            "hash": "ec00caadb5d613bb44d96d949becfd04f6ab9f420e011363da04daa833b18ae8"
        },
        "arm64": {
            "url": "https://mirror.ghproxy.com/https://github.com/laktak/zfind/releases/download/v0.4.6/zfind-windows-arm64.zip",
            "hash": "1b80344992ff274ce87798d9e4abfe7b6c314521032ff3993ec0a36f494fdc7b"
        }
    },
    "bin": "zfind.exe",
    "checkver": "github",
    "autoupdate": {
        "architecture": {
            "64bit": {
                "url": "https://mirror.ghproxy.com/https://github.com/laktak/zfind/releases/download/v$version/zfind-windows-amd64.zip"
            },
            "arm64": {
                "url": "https://mirror.ghproxy.com/https://github.com/laktak/zfind/releases/download/v$version/zfind-windows-arm64.zip"
            }
        }
    }
}
