{
    "version": "0.4.49",
    "description": "Geo-scale, next-generation peer-to-peer sharing platform built on top of OpenZiti.",
    "homepage": "https://zrok.io",
    "license": "Apache-2.0",
    "architecture": {
        "64bit": {
            "url": "https://mirror.ghproxy.com/https://github.com/openziti/zrok/releases/download/v0.4.49/zrok_0.4.49_windows_amd64.tar.gz",
            "hash": "449a814f36f60024e29e2229a5fa7f92e0cd1d8df51fc1545b1f1aa606f424c7"
        }
    },
    "bin": "zrok.exe",
    "checkver": {
        "github": "https://github.com/openziti/zrok"
    },
    "autoupdate": {
        "architecture": {
            "64bit": {
                "url": "https://mirror.ghproxy.com/https://github.com/openziti/zrok/releases/download/v$version/zrok_$version_windows_amd64.tar.gz"
            }
        },
        "hash": {
            "url": "$baseurl/checksums.txt"
        }
    }
}
